Project 1
…
groupstats <- total %>% group_by(size) %>% summarize_if(is.numeric, list(min=min,max=max, 
mean=mean, sd=sd,var=var, median=median))
groupstats%>%pivot_longer(contains("_"))%>%
  separate(name,into=c("variable","stat")) %>% 
  pivot_wider(names_from = "stat", values_from = "value") %>% 
  arrange(variable) %>% tidyr::unnest()

## # A tibble: 21 x 8
##    size   variable       min       max        mean          sd     var    median
##    <chr>  <chr>        <dbl>     <dbl>       <dbl>       <dbl>   <dbl>     <dbl>
##  1 big    bronze           0    3.20e1      1.02e1      1.02e1 1.04e 2    6.50e0
##  2 medium bronze           0    1.20e1      3.41e0      3.49e0 1.22e 1    2.00e0
##  3 small  bronze           0    6.00e0      1.97e0      1.59e0 2.53e 0    2.00e0
##  4 big    gold             0    4.60e1      1.06e1      1.41e1 1.98e 2    3.50e0
##  5 medium gold             0    1.30e1      2.41e0      3.03e0 9.18e 0    1.00e0
##  6 small  gold             0    8.00e0      1.14e0      1.75e0 3.06e 0    1.00e0
##  7 big    poppctile       79    9.90e1      8.92e1      6.39e0 4.09e 1    8.95e1
##  8 medium poppctile       45    7.80e1      6.13e1      1.01e1 1.03e 2    6.10e1
##  9 small  poppctile        1    4.30e1      2.19e1      1.28e1 1.65e 2    2.20e1
## 10 big    popul     52385920    1.38e9      2.49e8      3.92e8 1.54e17    8.73e7
## # ... with 11 more rows
…
